{
  "prerun": "# some code here",
  "directory": "migrations",
  "history": "migratehistory",
  "models": [
    "src.models.cliente.Cliente",
    "src.models.anamnese.Anamnese",
    "src.models.testeDeMecha.TesteDeMecha",
    "src.models.produto.Produto"
  ]
}